LastName,FirstName,Mobile,Comments
Alcantara,Ma. Calixtra Leila ,"0915-7894867",Globe number
Acosta,Rodolfo ,0929-7826396,Smart number
 Bacalla,Lyngie,"0917-8879960",Globe number
 Banate,Jonathan,0915-4521708,Globe hotline
 Bautista,Ma. Luisa,0917-8958472,Smart number
Bugay,Emelita ,0918-9278946,
Cabile,Menandro ,0920-9149369,
Cerrero,Nenita ,0919-2656803,
Co,Eddi Y. ,"0917-5841818",
Cochon,Jennifer ,0917-8439348,
 Cordero,Jerand Inspiration S.,0927-9262552,
 de Guzman,Manual,"0927-6462549",
De Vera,Concepcion ,0927-2965942,
Francisco,Lorenzo ,0927-4277713,
 Garino,Lory,0916-2623785,
Geronimo,Francisco ,0922-8909968,
 Gomez,Rocelyn,0939-1384357,
Hernandez,Herminigilda ,0919-8814052,
Josef,Aurea ,0921-2276327,
Juanillas,Rodelisa ,0922-8796787,
Lithuania,Liezl ,0920-5675373,
 Llado,Marilou,0922-8880013,
 Llamado,Laylani,0917-5460347,
Luna,Paulo Ferdinand ,0922-8535845,
 Mendoza,Cherry lyn,0920-9286320,
 Mercado,Ernesto,0917-8854744,
Mogello,Melba ,0927-7740733,
 Mogello,Richard,0917-9973232,
Mostrales,Madeline Monica ,0917-8014316,
Musngi,Leticia ,0918-9286728,
Opinion,Angelita ,0922-8780712,
Opinion,Sylvia ,"0917-5760300",
Paderan,Delia C. ,0917-8144629,
Pajarillaga,Sydney Claire ,0922-8670835,
Poon,Josephine ,0917-9996839,
Punzalan,Gina ,0917-8388601,
 Reambonanza,Severino,0926-6629813,
 Robles,Rosalina,0920-9087602,
Santos,Maria Cristina ,0999-9985990,
 Santos,ma. Liezel Joy,0910-7465084,
 Selispara,Cresencio,0918-9056694,
Suarez,Rosalia ,0922-8197045,
Tariaga,Fernando,0999-6822514,
Teston,Olivia ,0923-8592357,
Teope,Dinia ,0920-9239183,
 Uy,Corazon,"0917-5987874",
Valderama,Lina ,0928-5058867,
Zulueta,mary Jane ,0917-6207146,